<svg width="125" height="35" viewBox="0 0 125 35" fill="none" xmlns="http://www.w3.org/2000/svg">
<path fill-rule="evenodd" clip-rule="evenodd" d="M33.541 27.5666V0.0743673H38.499V10.3044C38.499 10.354 38.499 10.4036 38.499 10.4532C39.8831 9.41101 41.5332 8.7806 43.2595 8.63443C44.9859 8.48825 46.7185 8.83223 48.2581 9.62682C54.0424 12.676 54.1581 23.4928 48.0845 26.3519C46.3136 27.1155 44.3679 27.3812 42.4572 27.1204C40.317 26.8973 39.4493 26.4263 38.4825 25.5834V27.5997L33.541 27.5666ZM41.9118 13.3123C48.1672 12.2298 49.134 21.493 43.6636 22.5094C37.5653 23.5671 37.3587 13.4445 41.9118 13.3123ZM30.7645 21.5757C30.0869 21.7657 29.3845 22.0632 28.6987 22.2037C25.6826 22.8234 20.1543 23.2944 19.2784 19.8156C22.5177 19.8156 26.8725 20.0717 29.9712 19.8156C34.1855 19.4602 32.756 9.07318 24.253 8.53606C16.9234 8.07331 13.2296 12.2711 13.8163 19.328C13.9047 21.1713 14.6356 22.9254 15.8822 24.286C19.3776 28.0128 27.674 28.2855 30.7563 24.881L30.7645 21.5757ZM19.328 15.8739C20.1543 11.6183 26.575 11.42 27.203 15.8739H19.328ZM5.95787 27.4013C5.95787 25.6412 5.87525 23.4762 5.87525 22.9722C5.87525 20.8072 5.87525 18.5926 5.87525 16.4358H12.205C12.3392 14.7451 12.9368 13.1239 13.932 11.7505H5.86698V4.70186H18.4934V0H-1.52588e-05V4.69359L0.0826235 27.4013H5.95787ZM53.8111 25.9222C56.1166 28.0459 65.7599 28.145 67.8588 24.7901C68.3077 24.1204 68.6129 23.3648 68.7551 22.5712C68.8973 21.7776 68.8735 20.9631 68.6851 20.1791C67.8588 16.8738 64.7104 16.1384 61.8431 15.5021C61.1489 15.3533 60.2482 15.2624 59.4963 15.0311C57.3891 14.37 57.7609 12.9239 59.8846 12.5934C62.0083 12.2628 64.727 13.0561 66.611 13.2214V9.62682C64.3799 7.97415 57.6866 7.97416 55.2324 9.7012C52.5798 11.5439 52.9021 15.0311 54.092 16.7746C56.3644 20.1461 62.9751 19.5429 63.8676 21.1955C65.6277 24.4513 56.7115 22.8482 53.7945 22.2119L53.8111 25.9222ZM70.1973 8.30469V34.5326H75.1553V25.6164C75.1553 25.5669 75.1553 25.5173 75.1553 25.4677C76.5411 26.5097 78.1925 27.1399 79.9201 27.2861C81.6477 27.4322 83.3815 27.0884 84.9226 26.2941C86.8053 25.2106 88.1857 23.4295 88.7651 21.336C88.2126 19.7416 87.9332 18.0654 87.9388 16.378C87.9372 15.3112 88.0507 14.2473 88.2776 13.2049C87.5642 11.6262 86.3221 10.3461 84.7656 9.58552C82.991 8.82485 81.0442 8.55652 79.13 8.80876C77.6652 8.8307 76.2572 9.37922 75.1636 10.354V8.33774L70.1973 8.30469ZM78.5185 22.559C84.7739 23.6415 85.7407 14.3783 80.2704 13.3619C74.1389 12.3289 73.9737 22.4516 78.4772 22.5838L78.5185 22.559ZM125 9.41198V5.60256H121.389V4.03253C121.422 3.37739 121.422 2.72098 121.389 2.06584V0.0495782H116.249V10.197C117.304 12.2537 117.872 14.5259 117.908 16.8373C117.944 19.1487 117.447 21.4374 116.456 23.5258C116.902 26.0048 118.331 27.6079 122.909 27.3022C123.622 27.2704 124.327 27.134 125 26.8973V22.6747C123.653 22.9391 122.067 23.2531 121.513 21.3773C121.439 20.9319 121.398 20.4818 121.389 20.0304V10.321H125V9.41198Z" fill="white"/>
<path fill-rule="evenodd" clip-rule="evenodd" d="M103.267 3.80957C103.909 3.81934 104.534 4.01857 105.062 4.3822C105.591 4.74584 106.001 5.25768 106.24 5.85339C106.479 6.44909 106.536 7.1021 106.405 7.73036C106.274 8.35861 105.96 8.93409 105.502 9.38447C105.045 9.83485 104.465 10.14 103.835 10.2617C103.205 10.3834 102.553 10.3161 101.961 10.0682C101.369 9.82043 100.863 9.40317 100.507 8.86889C100.152 8.33461 99.962 7.70714 99.962 7.06534C99.975 6.19733 100.329 5.36928 100.947 4.76009C101.566 4.1509 102.399 3.80947 103.267 3.80957Z" fill="white"/>
<path fill-rule="evenodd" clip-rule="evenodd" d="M102.995 3.80957H103.218L103.656 10.3624C103.441 10.3624 103.218 10.3624 102.995 10.3624C102.004 10.3667 101.024 10.5662 100.11 10.9493C99.1963 11.3325 98.3671 11.8919 97.6696 12.5955C96.9721 13.2991 96.42 14.1333 96.0448 15.0503C95.6697 15.9673 95.4789 16.9492 95.4832 17.9399C95.483 18.2491 95.4996 18.5581 95.5328 18.8654L89.2774 20.6586C88.8779 18.625 88.9314 16.5284 89.4341 14.5178C89.9368 12.5073 90.8764 10.6322 92.186 9.02594C93.4956 7.4197 95.1431 6.12176 97.0112 5.22447C98.8794 4.32717 100.922 3.85255 102.995 3.83436" fill="url(#paint0_linear)"/>
<path fill-rule="evenodd" clip-rule="evenodd" d="M102.813 30.8886H102.581L102.143 24.3275C102.366 24.3402 102.59 24.3402 102.813 24.3275C103.804 24.3221 104.784 24.1216 105.697 23.7374C106.61 23.3533 107.439 22.793 108.135 22.0886C108.832 21.3842 109.383 20.5494 109.758 19.632C110.132 18.7146 110.321 17.7325 110.316 16.7417C110.316 16.4353 110.299 16.1291 110.266 15.8245L116.53 14.0479C116.699 14.9414 116.785 15.8488 116.786 16.7582C116.804 20.4825 115.342 24.0614 112.721 26.708C110.101 29.3546 106.537 30.8524 102.813 30.8721" fill="url(#paint1_linear)"/>
<path fill-rule="evenodd" clip-rule="evenodd" d="M102.532 30.8803C101.89 30.8705 101.265 30.6711 100.736 30.3071C100.207 29.9431 99.7973 29.4307 99.5587 28.8346C99.3202 28.2384 99.2632 27.585 99.3951 26.9565C99.5269 26.328 99.8416 25.7526 100.3 25.3025C100.758 24.8525 101.339 24.5479 101.969 24.4272C102.6 24.3065 103.252 24.3749 103.844 24.624C104.436 24.8731 104.941 25.2916 105.296 25.827C105.65 26.3624 105.839 26.9906 105.837 27.6328C105.822 28.4994 105.467 29.3253 104.849 29.9327C104.231 30.5401 103.399 30.8804 102.532 30.8803Z" fill="white"/>
<defs>
<linearGradient id="paint0_linear" x1="96.3343" y1="3.80957" x2="96.3343" y2="20.6586" gradientUnits="userSpaceOnUse">
<stop stop-color="white"/>
<stop offset="1" stop-color="white" stop-opacity="0"/>
</linearGradient>
<linearGradient id="paint1_linear" x1="109.465" y1="31.0001" x2="109.465" y2="17.0001" gradientUnits="userSpaceOnUse">
<stop stop-color="white"/>
<stop offset="1" stop-color="white" stop-opacity="0"/>
</linearGradient>
</defs>
</svg>
