<svg width="8" height="6" viewBox="0 0 8 6" fill="none" xmlns="http://www.w3.org/2000/svg">
<path d="M4.14433 5.00032L1.69238 2.76983L0.744141 3.63243L3.19609 5.86292L4.14433 5.00032Z" fill="white"/>
<path d="M3.19609 5.86292L7.74414 1.72555L6.7959 0.86295L2.24785 5.00032L3.19609 5.86292Z" fill="white"/>
</svg>
