<svg width="9" height="7" viewBox="0 0 9 7" fill="none" xmlns="http://www.w3.org/2000/svg">
<path d="M3.35117 6.70234L0 3.35117L1.296 2.05517L4.64716 5.40634L3.35117 6.70234Z" fill="white"/>
<path d="M2.05517 5.40634L7.46151 0L8.75751 1.29599L3.35117 6.70234L2.05517 5.40634Z" fill="white"/>
</svg>
