<svg width="84" height="84" viewBox="0 0 84 84" fill="none" xmlns="http://www.w3.org/2000/svg">
<path d="M80.4817 27.4599H80.7617V27.1799V7.40695C80.7617 5.10789 78.8921 3.23832 76.593 3.23832H7.40695C5.10785 3.23832 3.23832 5.10794 3.23832 7.40783V27.1808V27.4608H3.51832H18.5416H18.6956L18.7781 27.3307C23.6548 19.6377 32.2385 14.5178 42 14.5178C51.7615 14.5178 60.3443 19.6368 65.222 27.3299L65.3044 27.4599H65.4584H80.4817ZM3.51832 30.4183H3.23832V30.6983V76.593C3.23832 78.8921 5.10789 80.7617 7.40695 80.7617H76.593C78.8921 80.7617 80.7617 78.8921 80.7617 76.593V30.6983V30.4183H80.4817H67.3486H66.9166L67.0931 30.8126C68.6238 34.2328 69.4822 38.0166 69.4822 42C69.4822 57.1536 57.1536 69.4822 42 69.4822C26.8464 69.4822 14.5178 57.1536 14.5178 42C14.5178 38.0166 15.3762 34.2328 16.9069 30.8126L17.0834 30.4183H16.6514H3.51832ZM7.40695 0.28H76.593C80.5232 0.28 83.72 3.47768 83.72 7.40695V76.593C83.72 80.5232 80.5232 83.72 76.593 83.72H7.40695C3.47768 83.72 0.28 80.5232 0.28 76.593V7.40695C0.28 3.4777 3.4777 0.28 7.40695 0.28ZM66.5239 42C66.5239 28.4775 55.5225 17.4761 42 17.4761C28.4766 17.4761 17.4761 28.4766 17.4761 42C17.4761 55.5225 28.4766 66.5239 42 66.5239C55.5225 66.5239 66.5239 55.5225 66.5239 42ZM56.5401 42C56.5401 50.0167 50.0167 56.5401 42 56.5401C33.9825 56.5401 27.4599 50.0167 27.4599 42C27.4599 33.9825 33.9825 27.4599 42 27.4599C50.0167 27.4599 56.5401 33.9825 56.5401 42ZM53.5817 42C53.5817 35.6135 48.3865 30.4183 42 30.4183C35.6135 30.4183 30.4183 35.6135 30.4183 42C30.4183 48.3865 35.6135 53.5817 42 53.5817C48.3865 53.5817 53.5817 48.3865 53.5817 42Z" fill="#F02730" stroke="white" stroke-width="0.56"/>
</svg>
