<svg width="19" height="19" viewBox="0 0 19 19" fill="none" xmlns="http://www.w3.org/2000/svg">
<path fill-rule="evenodd" clip-rule="evenodd" d="M3.69306 2.96266V0.708955C3.69306 0.31741 3.38687 0 3.00916 0C2.63145 0 2.32526 0.31741 2.32526 0.708955V3.02663L3.69306 2.96266ZM2.32526 7.84476V18.291C2.32526 18.6826 2.63145 19 3.00916 19C3.38687 19 3.69306 18.6826 3.69306 18.291V7.82537" fill="#F02730"/>
<path fill-rule="evenodd" clip-rule="evenodd" d="M6.14267 5.3792C6.14267 3.62198 4.76744 2.19776 3.07134 2.19776C1.37523 2.19776 0 3.62198 0 5.3792C0 7.13641 1.37523 8.56063 3.07134 8.56063C4.76744 8.56063 6.14267 7.13641 6.14267 5.3792ZM1.3678 5.3792C1.3678 4.40538 2.13035 3.61567 3.07134 3.61567C4.01232 3.61567 4.77487 4.40538 4.77487 5.3792C4.77487 6.35301 4.01232 7.14272 3.07134 7.14272C2.13035 7.14272 1.3678 6.35301 1.3678 5.3792Z" fill="#F02730"/>
<path fill-rule="evenodd" clip-rule="evenodd" d="M16.5504 2.96266V0.708955C16.5504 0.31741 16.2442 0 15.8665 0C15.4888 0 15.1826 0.31741 15.1826 0.708955V3.02663L16.5504 2.96266ZM15.1826 7.84476V18.291C15.1826 18.6826 15.4888 19 15.8665 19C16.2442 19 16.5504 18.6826 16.5504 18.291V7.82537" fill="#F02730"/>
<path fill-rule="evenodd" clip-rule="evenodd" d="M19 5.3792C19 3.62198 17.6248 2.19776 15.9287 2.19776C14.2326 2.19776 12.8573 3.62198 12.8573 5.3792C12.8573 7.13641 14.2326 8.56063 15.9287 8.56063C17.6248 8.56063 19 7.13641 19 5.3792ZM14.2251 5.3792C14.2251 4.40538 14.9877 3.61567 15.9287 3.61567C16.8697 3.61567 17.6322 4.40538 17.6322 5.3792C17.6322 6.35301 16.8697 7.14272 15.9287 7.14272C14.9877 7.14272 14.2251 6.35301 14.2251 5.3792Z" fill="#F02730"/>
<path fill-rule="evenodd" clip-rule="evenodd" d="M8.89071 16.0373V18.291C8.89071 18.6826 9.1969 19 9.57461 19C9.95232 19 10.2585 18.6826 10.2585 18.291V15.9734L8.89071 16.0373ZM10.2585 11.1552V0.708955C10.2585 0.31741 9.95232 0 9.57461 0C9.1969 0 8.89071 0.31741 8.89071 0.708955V11.1746" fill="#F02730"/>
<path fill-rule="evenodd" clip-rule="evenodd" d="M6.4411 13.6208C6.4411 15.378 7.81633 16.8022 9.51243 16.8022C11.2085 16.8022 12.5838 15.378 12.5838 13.6208C12.5838 11.8636 11.2085 10.4394 9.51243 10.4394C7.81633 10.4394 6.4411 11.8636 6.4411 13.6208ZM11.216 13.6208C11.216 14.5946 10.4534 15.3843 9.51243 15.3843C8.57145 15.3843 7.8089 14.5946 7.8089 13.6208C7.8089 12.647 8.57145 11.8573 9.51243 11.8573C10.4534 11.8573 11.216 12.647 11.216 13.6208Z" fill="#F02730"/>
<path d="M18 5.35444C18 6.45901 17.1046 7.35444 16 7.35444C14.8954 7.35444 14 6.45901 14 5.35444C14 4.24987 14.8954 3.35444 16 3.35444C17.1046 3.35444 18 4.24987 18 5.35444Z" fill="#F02730"/>
<path d="M11.5 13.6248C11.5 14.7294 10.6046 15.6248 9.5 15.6248C8.39543 15.6248 7.5 14.7294 7.5 13.6248C7.5 12.5202 8.39543 11.6248 9.5 11.6248C10.6046 11.6248 11.5 12.5202 11.5 13.6248Z" fill="#F02730"/>
<path d="M5 5.35444C5 6.45901 4.10457 7.35444 3 7.35444C1.89543 7.35444 1 6.45901 1 5.35444C1 4.24987 1.89543 3.35444 3 3.35444C4.10457 3.35444 5 4.24987 5 5.35444Z" fill="#F02730"/>
</svg>
