<svg width="13" height="12" viewBox="0 0 13 12" fill="none" xmlns="http://www.w3.org/2000/svg">
<path d="M2.86 5.12194H0.52C0.382087 5.12194 0.249823 5.17467 0.152304 5.26853C0.0547856 5.36239 0 5.48969 0 5.62242V10.6272C0 10.76 0.0547856 10.8873 0.152304 10.9811C0.249823 11.075 0.382087 11.1277 0.52 11.1277H2.86C2.99791 11.1277 3.13018 11.075 3.2277 10.9811C3.32521 10.8873 3.38 10.76 3.38 10.6272V5.62242C3.38 5.48969 3.32521 5.36239 3.2277 5.26853C3.13018 5.17467 2.99791 5.12194 2.86 5.12194ZM1.56 10.377C1.50858 10.377 1.45831 10.3623 1.41555 10.3348C1.37279 10.3073 1.33947 10.2682 1.31979 10.2225C1.30011 10.1768 1.29496 10.1265 1.305 10.0779C1.31503 10.0294 1.33979 9.9848 1.37615 9.9498C1.41251 9.9148 1.45884 9.89097 1.50928 9.88132C1.55971 9.87166 1.61199 9.87662 1.6595 9.89556C1.70701 9.9145 1.74761 9.94657 1.77618 9.98772C1.80475 10.0289 1.82 10.0773 1.82 10.1267C1.82 10.1931 1.79261 10.2568 1.74385 10.3037C1.69509 10.3506 1.62896 10.377 1.56 10.377Z" fill="#949494"/>
<path d="M13 5.31838V5.71751C12.9909 5.74879 12.9792 5.78007 12.9727 5.81135C12.9317 6.07624 12.8207 6.32655 12.6503 6.5383C12.6134 6.57821 12.589 6.62732 12.5798 6.67999C12.5706 6.73266 12.577 6.78677 12.5983 6.83609C12.6762 7.06825 12.6977 7.31452 12.6612 7.55594C12.6247 7.79736 12.5311 8.0275 12.3877 8.22867C12.3651 8.25933 12.35 8.29448 12.3435 8.33151C12.337 8.36855 12.3392 8.40653 12.35 8.44263C12.4473 8.87259 12.3646 9.32212 12.1199 9.69383C12.0523 9.80144 11.9353 9.88652 11.8976 9.99913C11.8792 10.1234 11.8757 10.2494 11.8872 10.3745C11.8821 10.6265 11.8154 10.8738 11.6926 11.0964C11.5697 11.319 11.3941 11.5106 11.18 11.6557C10.8621 11.868 10.4853 11.9835 10.0984 11.9873C9.594 12.0036 9.0844 12.0036 8.58 11.991C8.35194 11.9823 8.12477 11.9584 7.9001 11.9197C7.14001 11.7864 6.39323 11.5905 5.668 11.3342C5.46 11.2653 5.2416 11.189 5.0258 11.1277H4.42C4.28261 11.1261 4.15132 11.0728 4.05417 10.9793C3.95701 10.8858 3.90169 10.7595 3.9 10.6272V10.4858C3.89867 10.4613 3.89867 10.4366 3.9 10.412C3.9 10.0104 3.9 9.60875 3.9 9.20837V5.59615C3.9 5.5461 3.9 5.49605 3.9 5.446C3.91096 5.33918 3.95731 5.23858 4.03222 5.15905C4.10713 5.07952 4.20662 5.02528 4.316 5.00433C4.4574 4.98573 4.58851 4.92285 4.6891 4.82541C4.94 4.57516 5.1935 4.32492 5.4288 4.05842C5.8188 3.61549 6.201 3.16256 6.5845 2.71338C6.67115 2.61875 6.75024 2.51795 6.8211 2.41184C7.0343 2.064 7.1006 1.66987 7.1799 1.28575C7.2592 0.901636 7.3632 0.528778 7.6271 0.215977C7.67943 0.14308 7.75094 0.084862 7.8343 0.0472715C7.91767 0.00968096 8.00991 -0.00593416 8.1016 0.00202175C8.27599 0.0123595 8.44962 0.0324124 8.6216 0.0620794C9.2807 0.1872 9.6369 0.532531 9.7916 1.13561C9.95162 1.72042 9.92122 2.33842 9.7045 2.90606C9.5953 3.18133 9.4445 3.44032 9.3145 3.70808C9.2703 3.79942 9.2352 3.89326 9.1845 4.00211H9.334C10.0503 4.00211 10.764 3.99586 11.4829 4.00211C11.75 4.00166 12.0122 4.07132 12.2413 4.2036C12.4704 4.33588 12.6576 4.52577 12.7829 4.75284C12.8726 4.93475 12.9453 5.12401 13 5.31838Z" fill="#949494"/>
</svg>
