<svg width="17" height="13" viewBox="0 0 17 13" fill="none" xmlns="http://www.w3.org/2000/svg">
<path d="M0.175781 1.27009C0.175781 0.846802 0.633301 0.503662 1.19768 0.503662H15.5042C16.0686 0.503662 16.5261 0.846802 16.5261 1.27009C16.5261 1.69337 16.0686 2.03651 15.5042 2.03651H1.19768C0.633301 2.03651 0.175781 1.69337 0.175781 1.27009Z" fill="white"/>
<path d="M0.175781 6.37957C0.175781 5.95629 0.633301 5.61315 1.19768 5.61315H15.5042C16.0686 5.61315 16.5261 5.95629 16.5261 6.37957C16.5261 6.80286 16.0686 7.146 15.5042 7.146H1.19768C0.633301 7.146 0.175781 6.80286 0.175781 6.37957Z" fill="white"/>
<path d="M0.175782 11.4891C0.175782 11.0658 0.633301 10.7226 1.19768 10.7226H10.3948C10.9591 10.7226 11.4167 11.0658 11.4167 11.4891C11.4167 11.9123 10.9591 12.2555 10.3948 12.2555H1.19768C0.633301 12.2555 0.175782 11.9123 0.175782 11.4891Z" fill="white"/>
</svg>
