<svg width="138" height="38" viewBox="0 0 138 38" fill="none" xmlns="http://www.w3.org/2000/svg">
<path fill-rule="evenodd" clip-rule="evenodd" d="M15.2371 18.2787L0 2.32794V34.2294L15.2371 18.2787ZM15.7514 17.7426L19.4881 13.8274L1.59705 2.92114L15.7514 17.7426ZM16.2657 18.2787L20.1387 22.3327L26.7896 18.2769L20.1387 14.2211L16.2657 18.2787ZM15.7514 18.8192L1.59789 33.6318L19.4877 22.73L15.7514 18.8192ZM110.262 20.6911C109.658 20.6789 109.06 20.8096 108.511 21.0734C107.971 21.3537 107.51 21.7777 107.172 22.3037H107.101L106.892 20.88H105.68V35.9387H107.17V31.6632C107.168 31.0858 107.132 30.5091 107.063 29.9363H107.17C107.509 30.4387 107.97 30.8362 108.504 31.0876C109.057 31.3425 109.656 31.4699 110.259 31.4611C110.83 31.4904 111.4 31.3776 111.922 31.1318C112.444 30.886 112.904 30.5141 113.264 30.0462C113.985 29.1014 114.346 27.7759 114.348 26.0695C114.348 24.3704 113.993 23.0493 113.284 22.106C112.922 21.635 112.459 21.2611 111.934 21.0149C111.408 20.7686 110.835 20.6571 110.261 20.6893L110.262 20.6911ZM112.081 29.0575C111.863 29.4033 111.565 29.6847 111.215 29.8746C110.865 30.0646 110.474 30.157 110.081 30.1429C109.063 30.1429 108.324 29.8294 107.863 29.2025C107.402 28.5756 107.171 27.5313 107.171 26.0695V25.718C107.183 24.4349 107.414 23.4989 107.863 22.9101C108.312 22.3257 109.039 22.0327 110.045 22.0313C110.439 22.0123 110.832 22.0972 111.187 22.2783C111.542 22.4593 111.849 22.7308 112.08 23.0683C112.561 23.7582 112.802 24.7556 112.802 26.0519C112.857 27.1073 112.606 28.1553 112.081 29.0558L112.081 29.0575ZM116.309 31.2722H117.799V16.521H116.308L116.309 31.2722ZM124.019 20.713C123.433 20.7138 122.849 20.7935 122.281 20.9503C121.727 21.0982 121.191 21.3166 120.687 21.6007L121.145 22.809C122.005 22.3254 122.956 22.0521 123.93 22.0093C124.219 21.9813 124.512 22.019 124.787 22.1198C125.061 22.2206 125.313 22.3822 125.524 22.5937C125.896 23.1101 126.074 23.7533 126.024 24.3997V25.0456L124.353 25.1028C121.174 25.2038 119.585 26.3038 119.585 28.4028C119.56 28.8208 119.621 29.2396 119.765 29.6303C119.908 30.0209 120.13 30.3742 120.415 30.6658C121.057 31.2288 121.877 31.5132 122.71 31.4611C123.335 31.4818 123.957 31.365 124.537 31.1184C125.118 30.8047 125.621 30.3516 126.005 29.7957H126.078L126.374 31.2722H127.478V24.1782C127.478 22.9655 127.195 22.0867 126.63 21.533C126.065 20.9793 125.19 20.7113 124.017 20.7113L124.019 20.713ZM125.986 27.1021C126.009 27.5161 125.95 27.9306 125.813 28.3194C125.677 28.7082 125.465 29.0628 125.191 29.3607C124.592 29.9236 123.806 30.2128 123.005 30.1648C122.511 30.197 122.024 30.0376 121.635 29.7166C121.466 29.5529 121.335 29.3515 121.25 29.1272C121.165 28.9028 121.13 28.6613 121.145 28.4204C121.126 28.1025 121.189 27.785 121.327 27.5018C121.465 27.2186 121.674 26.9802 121.931 26.8121C122.456 26.4694 123.31 26.2746 124.495 26.2277L125.986 26.1618V27.1021ZM133.536 28.082C133.288 28.8642 133.126 29.4134 133.048 29.7386H132.976C132.746 28.7418 132.451 27.7625 132.095 26.8077L129.94 20.88H128.342L132.311 31.3337L131.763 32.8101C131.326 34.0229 130.595 34.6293 129.572 34.6293C129.201 34.6337 128.83 34.5969 128.467 34.5194V35.7762C128.909 35.8851 129.361 35.9397 129.815 35.9387C130.563 35.9617 131.293 35.7014 131.875 35.2049C132.555 34.5174 133.06 33.6606 133.344 32.7135L137.574 20.88H135.975C134.596 24.8995 133.783 27.2995 133.534 28.0802L133.536 28.082ZM85.2383 21.0628H80.9997C79.6758 20.9901 78.3701 21.4135 77.3138 22.258C76.9106 22.6171 76.5846 23.0627 76.3575 23.5651C76.1304 24.0674 76.0075 24.615 75.9968 25.1713C75.9988 25.6352 76.09 26.0938 76.2648 26.5195C76.4395 26.9453 76.6943 27.3292 77.0137 27.6483C77.333 27.9673 77.7104 28.2149 78.123 28.376C78.5356 28.5371 78.9749 28.6084 79.4143 28.5856C79.6202 28.5856 79.8465 28.5636 80.0736 28.5416C79.945 28.8043 79.8746 29.0943 79.8677 29.3897C79.896 29.9448 80.1156 30.4699 80.4854 30.8662C79.5597 30.9321 77.8289 31.0375 76.5536 31.8636C76.0918 32.1204 75.7024 32.5009 75.4244 32.9668C75.1464 33.4327 74.9896 33.9676 74.9699 34.5177C74.9699 36.1259 76.4102 37.6244 79.396 37.6244C82.936 37.6244 84.8094 35.5635 84.8094 33.5202C84.8094 32.0174 83.9871 31.2792 83.081 30.4751L82.3396 29.8687C82.1862 29.7688 82.0575 29.6318 81.9643 29.469C81.8711 29.3062 81.816 29.1224 81.8036 28.9327C81.825 28.7225 81.8873 28.5192 81.9865 28.3355C82.0857 28.1517 82.2199 27.9915 82.3805 27.8649C83.2453 27.1487 84.1096 26.3885 84.1096 24.7802C84.1019 24.2043 83.9655 23.6385 83.7117 23.1285C83.4578 22.6185 83.0936 22.1788 82.6484 21.845H83.9242L85.2383 21.0628ZM83.4278 34.3639C83.4278 35.7129 82.3771 36.7147 80.4016 36.7147C78.199 36.7147 76.7757 35.603 76.7757 34.0607C76.7757 32.5183 78.0936 31.9954 78.5462 31.8241C79.2491 31.6072 79.9761 31.4891 80.7084 31.4726C80.8663 31.467 81.0244 31.4758 81.181 31.4989C82.7493 32.6721 83.4278 33.2566 83.4278 34.3639ZM81.7807 27.3684C81.4013 27.7461 80.9025 27.9622 80.3808 27.9748C78.6095 27.9748 77.8064 25.5624 77.8064 24.108C77.7782 23.5329 77.9383 22.9651 78.2598 22.4997C78.4375 22.2786 78.6581 22.1002 78.9067 21.9767C79.1553 21.8531 79.4262 21.7872 79.701 21.7835C81.4098 21.7835 82.2938 24.2134 82.2938 25.7777C82.3289 26.3584 82.1437 26.9301 81.7807 27.3684ZM69.9944 20.7552C66.8687 20.7552 64.6702 23.1852 64.6702 26.0282C64.6694 26.715 64.7998 27.3948 65.0535 28.0273C65.3072 28.6599 65.6792 29.232 66.1471 29.7098C66.6151 30.1875 67.1695 30.561 67.7773 30.808C68.3851 31.0549 69.0338 31.1704 69.6848 31.1474C70.359 31.1753 71.0316 31.0596 71.6626 30.8074C72.2935 30.5552 72.8698 30.1717 73.357 29.6796C73.8443 29.1874 74.2325 28.5969 74.4986 27.9431C74.7647 27.2894 74.9031 26.5858 74.9057 25.8744C74.912 25.1954 74.789 24.522 74.5439 23.8941C74.2987 23.2661 73.9364 22.6965 73.4784 22.2191C73.0205 21.7416 72.4762 21.366 71.8779 21.1145C71.2797 20.8631 70.6384 20.7409 69.9944 20.7552ZM72.2538 29.3941C72.0089 29.7359 71.6924 30.0133 71.3289 30.2047C70.9655 30.396 70.5649 30.4961 70.1587 30.497C67.671 30.497 66.6636 26.9598 66.6636 24.8154C66.6636 23.8795 66.8083 22.9259 67.6097 22.1657C68.1233 21.6954 68.7791 21.4336 69.4593 21.4275C72.0083 21.4275 72.871 25.0702 72.871 26.9817C72.9193 27.835 72.7018 28.6817 72.2538 29.3941ZM58.8567 20.7552C55.7309 20.7552 53.5325 23.1852 53.5325 26.0282C53.5316 26.715 53.662 27.395 53.9158 28.0276C54.1696 28.6601 54.5416 29.2323 55.0096 29.7101C55.4777 30.1878 56.0322 30.5613 56.6401 30.8082C57.248 31.0552 57.8968 31.1705 58.5479 31.1474C59.2221 31.1752 59.8946 31.0595 60.5255 30.8073C61.1564 30.5551 61.7326 30.1715 62.2198 29.6794C62.707 29.1873 63.0952 28.5968 63.3613 27.943C63.6273 27.2893 63.7658 26.5858 63.7683 25.8744C63.7747 25.1953 63.6516 24.5217 63.4064 23.8936C63.1611 23.2656 62.7986 22.6959 62.3405 22.2184C61.8824 21.7409 61.3379 21.3654 60.7394 21.114C60.141 20.8627 59.5007 20.7407 58.8567 20.7552ZM61.1172 29.3941C60.8722 29.7359 60.5555 30.0133 60.1919 30.2046C59.8283 30.396 59.4277 30.496 59.0213 30.497C56.5332 30.497 55.5267 26.9598 55.5267 24.8154C55.5267 23.8795 55.6705 22.9259 56.4719 22.1657C56.9855 21.6954 57.6413 21.4336 58.3216 21.4275C60.8705 21.4275 61.7341 25.0702 61.7341 26.9817C61.781 27.8352 61.564 28.6817 61.1156 29.3941H61.1172ZM46.7137 27.1443L49.8336 26.9686V30.4795C49.0076 30.8647 48.1109 31.0522 47.208 31.0287C42.7039 31.0287 39.8932 27.1663 39.8932 23.0666C39.8932 19.2481 42.3522 16.6291 45.618 16.6291C46.4504 16.6222 47.2747 16.8011 48.0368 17.154C48.7989 17.507 49.4816 18.0259 50.0399 18.6768L49.5231 19.5512L50.2458 19.3755L51.9617 17.6529C51.14 17.0272 50.2149 16.5683 49.2339 16.2996C48.2042 15.9995 47.141 15.8458 46.0727 15.8426C40.8026 15.8426 37.7244 19.771 37.7244 24.0025C37.7244 27.4695 39.8915 31.8988 45.5971 31.8988C46.741 31.8704 47.8809 31.747 49.0063 31.5297L51.9617 30.809V28.1462C51.9617 27.9265 51.9808 27.2937 52.0033 27.096C52.0134 27.026 52.0371 26.9591 52.0729 26.8993C52.1088 26.8396 52.1561 26.7883 52.2117 26.7489L52.7485 26.204H48.3645L46.7137 27.1443ZM88.3544 29.1348V16.7829C88.3586 16.739 88.3615 16.6907 88.3657 16.6423C88.449 15.8821 88.6574 15.7503 89.2968 15.3548H86.3406L84.7902 16.1414H86.3702V16.1545V16.1458V29.6138C86.3702 30.0488 86.2868 30.1147 85.8126 30.7695H89.4705L90.2349 30.2905C89.8844 30.2466 89.5322 30.2246 89.1805 30.1807C88.4953 30.1147 88.3528 29.9829 88.3528 29.1348H88.3544ZM91.9449 25.703L93.5253 25.5712L98.3465 23.5104C98.1412 22.6308 97.629 21.8651 96.912 21.366C96.274 20.9611 95.5419 20.7512 94.7973 20.7596C94.1744 20.7532 93.5567 20.8786 92.9806 21.1285C92.4046 21.3784 91.882 21.7476 91.4437 22.2143C91.0055 22.681 90.6606 23.2357 90.4294 23.8456C90.1982 24.4554 90.0854 25.108 90.0978 25.7646C90.0811 26.6467 90.2619 27.5205 90.6254 28.3153C90.9889 29.11 91.5249 29.8033 92.19 30.3388C92.9855 30.9322 93.9459 31.2291 94.9194 31.1825C95.604 31.1971 96.2836 31.0562 96.912 30.7695C97.137 30.664 97.3625 30.5102 97.5876 30.3828L98.6758 29.2974C97.9141 29.7657 97.0535 30.0255 96.1722 30.0532C94.2205 30.0532 92.4554 28.4538 91.9432 25.703H91.9449ZM91.8615 24.4859C91.8615 22.1482 93.3998 21.4759 94.2217 21.4759C95.3307 21.4759 96.2535 22.4733 96.2535 23.339C96.2535 23.6422 96.048 23.774 95.6591 23.9234L91.9241 25.6371C91.9016 25.246 91.8615 24.855 91.8615 24.4859ZM98.9554 20.909H99.4038V22.3415H99.568V20.909H100.016V20.7596H98.9541L98.9554 20.909ZM100.928 22.0383H100.922L100.542 20.7596H100.284V22.3415H100.433V20.8958H100.438L100.859 22.3415H100.988L101.404 20.8958H101.412V22.3415H101.56V20.7596H101.3L100.928 22.0383Z" fill="white"/>
<path d="M37.7436 0.585938H41.1358C41.7534 0.585938 42.2958 0.652697 42.7631 0.786216C43.2304 0.91139 43.6602 1.14922 44.0524 1.49971C44.9286 2.28414 45.3667 3.41488 45.3667 4.89194C45.3667 6.46913 44.9495 7.67498 44.115 8.50948C43.7478 8.87665 43.3473 9.13535 42.9133 9.28556C42.4877 9.42742 41.9244 9.49835 41.2235 9.49835H37.7436V0.585938ZM39.2958 1.91279V8.18402H41.1358C42.1122 8.18402 42.8007 7.90029 43.2012 7.33284C43.6018 6.76538 43.8021 5.97678 43.8021 4.96704C43.8021 4.00737 43.5767 3.2605 43.1261 2.72642C42.6755 2.184 41.9787 1.91279 41.0357 1.91279H39.2958Z" fill="white"/>
<path d="M50.6451 2.85159C51.6298 2.85159 52.4142 3.16036 52.9984 3.77788C53.5825 4.39541 53.8746 5.22573 53.8746 6.26885C53.8746 7.32032 53.5825 8.15482 52.9984 8.77234C52.4226 9.38987 51.6381 9.69863 50.6451 9.69863C49.6353 9.69863 48.8342 9.38987 48.2417 8.77234C47.6493 8.15482 47.353 7.32032 47.353 6.26885C47.353 5.22573 47.6493 4.39541 48.2417 3.77788C48.8426 3.16036 49.6437 2.85159 50.6451 2.85159ZM51.9469 4.59152C51.6298 4.18262 51.1875 3.97816 50.6201 3.97816C50.0526 3.97816 49.6061 4.18262 49.2807 4.59152C48.9552 5.00042 48.7925 5.55953 48.7925 6.26885C48.7925 6.99487 48.9552 7.56232 49.2807 7.97123C49.6061 8.38013 50.0568 8.58458 50.6326 8.58458C51.1917 8.58458 51.6298 8.38013 51.9469 7.97123C52.2724 7.55398 52.4351 6.98235 52.4351 6.25634C52.4351 5.54702 52.2724 4.99208 51.9469 4.59152Z" fill="white"/>
<path d="M55.5366 3.03936H57.0512L58.328 7.8836L59.5421 3.03936H60.9817L62.1708 7.8836L63.5102 3.03936H64.9622L62.9219 9.49835H61.4573L60.2431 4.70417L59.0415 9.49835H57.5394L55.5366 3.03936Z" fill="white"/>
<path d="M68.3084 3.03936V3.99068C68.8258 3.23963 69.5393 2.86411 70.4489 2.86411C71.1832 2.86411 71.7298 3.06439 72.0886 3.46495C72.4558 3.86551 72.6394 4.44131 72.6394 5.19236V9.49835H71.2124V5.74312C71.2124 5.48443 71.1999 5.27163 71.1749 5.10473C71.1498 4.92949 71.0956 4.75424 71.0121 4.579C70.937 4.40376 70.8119 4.27441 70.6366 4.19096C70.4614 4.09916 70.2361 4.05327 69.9607 4.05327C68.9092 4.05327 68.3835 4.70835 68.3835 6.01851V9.49835H66.9565V3.03936H68.3084Z" fill="white"/>
<path d="M76.6602 0.585938V9.49835H75.2458V0.585938H76.6602Z" fill="white"/>
<path d="M82.2707 2.85159C83.2554 2.85159 84.0398 3.16036 84.624 3.77788C85.2081 4.39541 85.5002 5.22573 85.5002 6.26885C85.5002 7.32032 85.2081 8.15482 84.624 8.77234C84.0482 9.38987 83.2637 9.69863 82.2707 9.69863C81.2609 9.69863 80.4598 9.38987 79.8673 8.77234C79.2748 8.15482 78.9786 7.32032 78.9786 6.26885C78.9786 5.22573 79.2748 4.39541 79.8673 3.77788C80.4682 3.16036 81.2693 2.85159 82.2707 2.85159ZM83.5725 4.59152C83.2554 4.18262 82.8131 3.97816 82.2457 3.97816C81.6782 3.97816 81.2317 4.18262 80.9063 4.59152C80.5808 5.00042 80.4181 5.55953 80.4181 6.26885C80.4181 6.99487 80.5808 7.56232 80.9063 7.97123C81.2317 8.38013 81.6824 8.58458 82.2582 8.58458C82.8173 8.58458 83.2554 8.38013 83.5725 7.97123C83.898 7.55398 84.0607 6.98235 84.0607 6.25634C84.0607 5.54702 83.898 4.99208 83.5725 4.59152Z" fill="white"/>
<path d="M87.7004 5.02963C87.8506 3.56926 88.7936 2.83908 90.5294 2.83908C91.3388 2.83908 91.9814 2.99763 92.457 3.31474C92.9411 3.63185 93.1831 4.1242 93.1831 4.7918V8.07137C93.1831 8.25495 93.2039 8.38013 93.2457 8.44689C93.2957 8.51365 93.3875 8.54703 93.521 8.54703C93.6212 8.54703 93.7297 8.53868 93.8465 8.52199V9.52339C93.4793 9.61518 93.1705 9.66108 92.9202 9.66108C92.311 9.66108 91.9605 9.40239 91.8687 8.885C91.3263 9.40239 90.5711 9.66108 89.6031 9.66108C88.9355 9.66108 88.4056 9.49001 88.0134 9.14787C87.6211 8.79738 87.425 8.32589 87.425 7.7334C87.425 7.54981 87.4459 7.37873 87.4876 7.22018C87.5294 7.06163 87.5752 6.92393 87.6253 6.8071C87.6837 6.69028 87.7714 6.58179 87.8882 6.48165C88.0134 6.38151 88.1135 6.29806 88.1886 6.2313C88.272 6.16454 88.4014 6.10196 88.5766 6.04354C88.7602 5.98513 88.8938 5.9434 88.9772 5.91837C89.069 5.88499 89.2234 5.85161 89.4403 5.81823C89.6573 5.78485 89.7992 5.76398 89.8659 5.75564C89.941 5.73895 90.0913 5.71809 90.3166 5.69305C90.8256 5.62629 91.1719 5.57205 91.3555 5.53033C91.5391 5.48026 91.6643 5.40932 91.731 5.31753C91.7895 5.25077 91.8187 5.09639 91.8187 4.85438C91.8187 4.20348 91.3764 3.87802 90.4918 3.87802C90.0245 3.87802 89.6824 3.96565 89.4654 4.14089C89.2484 4.31613 89.1107 4.61238 89.0523 5.02963H87.7004ZM91.8061 6.25634C91.6977 6.31475 91.5725 6.36899 91.4306 6.41906C91.2888 6.46079 91.1719 6.49 91.0801 6.50669C90.9967 6.51503 90.859 6.53172 90.6671 6.55676C90.4835 6.58179 90.3625 6.59848 90.304 6.60683C90.1288 6.63186 89.9911 6.6569 89.891 6.68193C89.7908 6.69862 89.6657 6.732 89.5154 6.78207C89.3736 6.83214 89.2609 6.89473 89.1775 6.96983C89.1024 7.03659 89.0356 7.13256 88.9772 7.25773C88.9188 7.37456 88.8896 7.51643 88.8896 7.68333C88.8896 7.99209 88.9897 8.22992 89.19 8.39682C89.3986 8.56372 89.6865 8.64717 90.0537 8.64717C90.6879 8.64717 91.1761 8.4761 91.5182 8.13395C91.7102 7.94202 91.8061 7.57067 91.8061 7.0199V6.25634Z" fill="white"/>
<path d="M101.904 0.585938V9.49835H100.564V8.60962C100.155 9.31894 99.4668 9.6736 98.4988 9.6736C97.5892 9.6736 96.8632 9.36483 96.3207 8.74731C95.7867 8.12978 95.5196 7.29946 95.5196 6.25634C95.5196 5.22156 95.7825 4.39958 96.3082 3.7904C96.8423 3.17287 97.5558 2.86411 98.4487 2.86411C99.3583 2.86411 100.043 3.20208 100.502 3.87802V0.585938H101.904ZM98.7116 4.01572C98.1691 4.01572 97.7394 4.21599 97.4223 4.61655C97.1135 5.00877 96.9591 5.54702 96.9591 6.2313C96.9591 6.94062 97.1177 7.49974 97.4348 7.90864C97.7602 8.31754 98.2025 8.52199 98.7616 8.52199C99.3207 8.52199 99.7547 8.32171 100.063 7.92116C100.381 7.5206 100.539 6.96566 100.539 6.25634C100.539 5.54702 100.376 4.99625 100.051 4.60403C99.7338 4.21182 99.2874 4.01572 98.7116 4.01572Z" fill="white"/>
</svg>
